<svg xmlns="http://www.w3.org/2000/svg" xmlns:xlink="http://www.w3.org/1999/xlink" width="189" height="56" viewBox="0 0 189 56">
    <defs>
        <path id="a" d="M.084 56V.056H189V56z"/>
    </defs>
    <g fill="none" fill-rule="evenodd">
        <g>
            <mask id="b" fill="#fff">
                <use xlink:href="#a"/>
            </mask>
            <path fill="#A9AAA9" d="M182.276 56H6.62C2.97 56 0 53.02 0 49.374V6.616C0 2.968 2.97 0 6.62 0h175.656C185.924 0 189 2.968 189 6.616v42.758c0 3.647-3.076 6.626-6.724 6.626" mask="url(#b)"/>
        </g>
        <path fill="#0A0A08" d="M187.645 49.375c0 2.963-2.4 5.362-5.368 5.362H6.621c-2.967 0-5.375-2.4-5.375-5.362V6.615a5.376 5.376 0 0 1 5.375-5.369h175.655a5.368 5.368 0 0 1 5.367 5.369v42.76h.002"/>
        <path fill="#FFF" d="M42.18 27.698c-.041-4.513 3.694-6.708 3.865-6.811-2.116-3.085-5.395-3.506-6.547-3.538-2.754-.29-5.425 1.648-6.828 1.648-1.43 0-3.592-1.62-5.919-1.573-2.994.047-5.799 1.781-7.336 4.475-3.172 5.492-.806 13.563 2.233 18.002 1.52 2.175 3.297 4.602 5.621 4.517 2.275-.095 3.125-1.452 5.872-1.452 2.72 0 3.518 1.452 5.89 1.397 2.441-.04 3.978-2.184 5.446-4.378 1.757-2.493 2.462-4.947 2.49-5.073-.057-.018-4.742-1.806-4.788-7.214M37.7 14.428c1.221-1.53 2.059-3.612 1.826-5.724-1.77.078-3.986 1.223-5.26 2.721-1.128 1.32-2.136 3.48-1.876 5.514 1.99.148 4.032-1.004 5.31-2.51M69.657 36.337l-1.575-4.864c-.167-.498-.479-1.668-.94-3.51h-.055c-.184.793-.48 1.962-.885 3.51l-1.547 4.864h5.002zm5.446 7.769h-3.18l-1.741-5.473H64.13l-1.66 5.473h-3.095l5.998-18.632h3.704l6.026 18.632zM87.486 37.332c0-1.307-.294-2.385-.885-3.234-.645-.883-1.51-1.327-2.598-1.327-.737 0-1.406.247-2.004.734-.599.488-.99 1.128-1.174 1.922a3.897 3.897 0 0 0-.139.91v2.24c0 .977.3 1.802.899 2.474.6.673 1.378 1.01 2.335 1.01 1.124 0 2-.435 2.627-1.3.625-.867.939-2.009.939-3.429zm3.04-.109c0 2.285-.617 4.091-1.851 5.417-1.106 1.18-2.478 1.77-4.12 1.77-1.767 0-3.039-.636-3.813-1.909h-.056v7.077h-2.985V35.094c0-1.437-.037-2.91-.11-4.423h2.625l.166 2.13h.056c.994-1.605 2.506-2.406 4.532-2.406 1.586 0 2.908.626 3.968 1.88s1.589 2.903 1.589 4.948zM102.938 37.332c0-1.307-.296-2.385-.885-3.234-.645-.883-1.51-1.327-2.598-1.327-.738 0-1.406.247-2.005.734-.598.488-.989 1.128-1.173 1.922-.091.368-.139.672-.139.91v2.24c0 .977.3 1.802.896 2.474.6.673 1.379 1.01 2.338 1.01 1.124 0 2-.435 2.625-1.3.627-.867.94-2.009.94-3.429zm3.04-.109c0 2.285-.617 4.091-1.853 5.417-1.105 1.18-2.478 1.77-4.117 1.77-1.77 0-3.041-.636-3.814-1.909h-.056v7.077h-2.985V35.094c0-1.437-.038-2.91-.11-4.423h2.626l.165 2.13h.056c.994-1.605 2.503-2.406 4.532-2.406 1.583 0 2.908.626 3.968 1.88 1.058 1.254 1.589 2.903 1.589 4.948zM123.255 38.882c0 1.584-.55 2.873-1.655 3.868-1.214 1.09-2.904 1.631-5.075 1.631-2.004 0-3.612-.386-4.829-1.16l.692-2.488c1.31.792 2.748 1.189 4.315 1.189 1.124 0 1.999-.254 2.627-.762.628-.507.938-1.186.938-2.036 0-.756-.256-1.393-.774-1.91-.514-.516-1.372-.996-2.569-1.44-3.262-1.216-4.893-2.999-4.893-5.344 0-1.53.573-2.786 1.715-3.764 1.14-.979 2.66-1.467 4.561-1.467 1.696 0 3.104.294 4.227.883l-.746 2.433c-1.05-.571-2.237-.857-3.566-.857-1.05 0-1.87.258-2.458.775-.497.46-.747 1.022-.747 1.687 0 .736.285 1.345.857 1.822.497.444 1.4.923 2.71 1.44 1.602.645 2.78 1.4 3.537 2.265.756.866 1.133 1.946 1.133 3.235M133.123 32.911h-3.29v6.523c0 1.659.58 2.488 1.742 2.488.533 0 .977-.047 1.327-.138l.081 2.267c-.588.22-1.36.33-2.321.33-1.179 0-2.1-.36-2.765-1.076-.66-.72-.995-1.927-.995-3.622v-6.772h-1.96v-2.24h1.96v-2.46l2.931-.884v3.344h3.29v2.24M144.87 37.374c0-1.237-.265-2.3-.802-3.187-.625-1.073-1.52-1.608-2.68-1.608-1.199 0-2.11.535-2.736 1.608-.536.887-.801 1.967-.801 3.243 0 1.24.265 2.302.8 3.188.646 1.071 1.55 1.607 2.711 1.607 1.14 0 2.034-.544 2.68-1.635.551-.904.829-1.978.829-3.216zm3.097-.096c0 2.065-.589 3.76-1.768 5.086-1.236 1.364-2.877 2.045-4.922 2.045-1.971 0-3.54-.653-4.711-1.962-1.17-1.308-1.756-2.959-1.756-4.948 0-2.082.602-3.787 1.81-5.113 1.206-1.327 2.833-1.99 4.878-1.99 1.973 0 3.557.653 4.756 1.962 1.142 1.271 1.713 2.91 1.713 4.92zM157.67 33.296a5.174 5.174 0 0 0-.941-.081c-1.05 0-1.862.396-2.434 1.189-.498.7-.746 1.584-.746 2.653v7.049h-2.983l.026-9.204c0-1.55-.037-2.96-.112-4.23h2.602l.109 2.57h.081c.315-.884.813-1.595 1.494-2.127.663-.48 1.383-.72 2.157-.72.276 0 .525.02.746.055v2.846M168.172 35.979c.02-.885-.175-1.648-.58-2.295-.516-.829-1.31-1.243-2.378-1.243-.976 0-1.77.404-2.376 1.216-.498.646-.794 1.42-.883 2.322h6.217zm2.846.774a7 7 0 0 1-.109 1.354h-8.954c.035 1.327.467 2.342 1.298 3.042.754.626 1.731.94 2.928.94 1.326 0 2.536-.214 3.624-.638l.467 2.074c-1.271.553-2.772.83-4.504.83-2.083 0-3.718-.613-4.908-1.84-1.186-1.225-1.782-2.87-1.782-4.933 0-2.028.551-3.715 1.66-5.059 1.16-1.437 2.726-2.156 4.697-2.156 1.936 0 3.402.719 4.398 2.156.79 1.143 1.185 2.554 1.185 4.23zM67.123 14.053c0-1.068-.283-1.887-.85-2.458-.565-.57-1.391-.856-2.478-.856-.462 0-.857.033-1.181.096v6.844c.18.028.51.04.99.04 1.124 0 1.99-.311 2.602-.936.61-.624.917-1.534.917-2.73zm1.547-.04c0 1.647-.493 2.888-1.48 3.72-.915.77-2.213 1.154-3.897 1.154-.833 0-1.549-.036-2.147-.107V9.775c.78-.126 1.62-.19 2.527-.19 1.602 0 2.812.35 3.626 1.047.913.786 1.371 1.913 1.371 3.38zM75.35 15.5c0-.608-.13-1.13-.394-1.566-.307-.528-.746-.79-1.316-.79-.59 0-1.037.262-1.345.79-.262.436-.394.966-.394 1.592 0 .609.132 1.131.394 1.568.317.525.76.788 1.331.788.561 0 1-.267 1.317-.802.272-.445.408-.972.408-1.58zm1.523-.048c0 1.015-.29 1.846-.87 2.499-.607.67-1.412 1.005-2.418 1.005-.968 0-1.74-.32-2.315-.965-.574-.642-.863-1.453-.863-2.43 0-1.023.296-1.86.89-2.513.593-.652 1.391-.977 2.396-.977.97 0 1.747.322 2.337.964.56.625.843 1.431.843 2.417zM87.871 12.207l-2.065 6.6h-1.343l-.856-2.867a21.353 21.353 0 0 1-.531-2.132h-.025a15.56 15.56 0 0 1-.53 2.132l-.91 2.866h-1.359l-1.942-6.6h1.508l.746 3.137c.181.743.33 1.449.45 2.12h.025c.11-.552.29-1.255.545-2.106l.936-3.15h1.194l.898 3.082c.217.752.393 1.476.529 2.173h.04c.1-.679.25-1.403.45-2.173l.8-3.082h1.44M95.477 18.806H94.01v-3.78c0-1.165-.442-1.747-1.33-1.747-.435 0-.788.161-1.06.482-.271.32-.407.697-.407 1.13v3.915h-1.467v-4.712c0-.58-.019-1.208-.054-1.887h1.29l.068 1.031h.041c.17-.32.426-.586.76-.796a2.468 2.468 0 0 1 1.33-.371c.616 0 1.129.199 1.536.598.507.488.76 1.216.76 2.185v3.952M98.057 18.806h1.466V9.178h-1.466zM106.638 15.5c0-.608-.132-1.13-.393-1.566-.307-.528-.748-.79-1.316-.79-.591 0-1.04.262-1.346.79-.262.436-.393.966-.393 1.592 0 .609.131 1.131.393 1.568.318.525.76.788 1.332.788.561 0 .998-.267 1.316-.802.273-.445.407-.972.407-1.58zm1.523-.048c0 1.015-.29 1.846-.87 2.499-.607.67-1.413 1.005-2.417 1.005-.97 0-1.742-.32-2.316-.965-.574-.642-.86-1.453-.86-2.43 0-1.023.295-1.86.887-2.513.594-.652 1.393-.977 2.395-.977.972 0 1.748.322 2.338.964.562.625.843 1.431.843 2.417zM113.739 16.538V15.52c-1.619-.028-2.428.416-2.428 1.33 0 .345.093.602.282.775.189.172.43.257.716.257.322 0 .623-.1.896-.305a1.243 1.243 0 0 0 .534-1.039zm1.523 2.268h-1.317l-.111-.76h-.04c-.451.606-1.094.91-1.928.91-.623 0-1.126-.199-1.507-.598-.344-.362-.516-.81-.516-1.344 0-.806.336-1.42 1.012-1.848.675-.424 1.624-.633 2.846-.624v-.122c0-.87-.456-1.303-1.37-1.303-.652 0-1.226.162-1.72.488l-.298-.964c.612-.38 1.37-.57 2.264-.57 1.725 0 2.59.91 2.59 2.73v2.43c0 .661.032 1.186.095 1.575zM122.079 16.023v-1.1c0-.19-.014-.345-.041-.462a1.671 1.671 0 0 0-.53-.89 1.435 1.435 0 0 0-.982-.36c-.547 0-.976.218-1.29.652-.313.435-.471.991-.471 1.67 0 .652.15 1.182.45 1.589.318.434.747.652 1.283.652.482 0 .867-.182 1.16-.543.282-.334.42-.738.42-1.208zm1.52 2.783h-1.302l-.067-1.06h-.042c-.416.807-1.123 1.21-2.118 1.21-.797 0-1.458-.312-1.983-.937-.525-.625-.788-1.435-.788-2.431 0-1.069.284-1.934.855-2.593.553-.616 1.231-.924 2.039-.924.885 0 1.506.298 1.859.896h.027V9.178h1.468v7.85c0 .643.017 1.235.052 1.778zM134.627 15.5c0-.608-.132-1.13-.394-1.566-.309-.528-.746-.79-1.318-.79-.587 0-1.036.262-1.346.79-.262.436-.393.966-.393 1.592 0 .609.131 1.131.393 1.568.318.525.76.788 1.333.788.56 0 1.001-.267 1.317-.802.27-.445.408-.972.408-1.58zm1.52-.048c0 1.015-.29 1.846-.87 2.499-.607.67-1.41 1.005-2.417 1.005-.967 0-1.739-.32-2.316-.965-.574-.642-.86-1.453-.86-2.43 0-1.023.295-1.86.888-2.513.593-.652 1.392-.977 2.399-.977.967 0 1.747.322 2.333.964.562.625.843 1.431.843 2.417zM144.036 18.806h-1.466v-3.78c0-1.165-.442-1.747-1.331-1.747-.435 0-.788.161-1.058.482-.27.32-.408.697-.408 1.13v3.915h-1.468v-4.712c0-.58-.017-1.208-.052-1.887h1.288l.068 1.031h.041c.172-.32.427-.586.76-.796a2.472 2.472 0 0 1 1.332-.371c.616 0 1.127.199 1.534.598.508.488.76 1.216.76 2.185v3.952M153.91 13.306h-1.617v3.206c0 .814.287 1.222.857 1.222.262 0 .48-.023.653-.069l.039 1.115c-.29.107-.67.162-1.141.162-.58 0-1.03-.176-1.355-.53-.33-.353-.49-.946-.49-1.779v-3.327h-.966v-1.1h.966v-1.209l1.437-.434v1.644h1.617v1.099M161.678 18.806h-1.468v-3.752c0-1.183-.443-1.775-1.33-1.775-.68 0-1.145.343-1.4 1.03-.043.145-.067.321-.067.528v3.97h-1.466V9.177h1.466v3.978h.027c.462-.724 1.124-1.085 1.982-1.085.608 0 1.11.199 1.51.598.498.497.746 1.236.746 2.213v3.924M168.29 14.813c.011-.434-.086-.81-.284-1.127-.255-.407-.643-.61-1.168-.61-.479 0-.87.199-1.168.598a2.216 2.216 0 0 0-.435 1.14h3.055zm1.4.381c0 .263-.02.485-.055.665h-4.4c.02.653.23 1.15.637 1.494.372.308.854.462 1.442.462.651 0 1.243-.104 1.78-.312l.229 1.018c-.626.271-1.36.408-2.215.408-1.022 0-1.825-.3-2.408-.904-.585-.602-.875-1.41-.875-2.423 0-.996.27-1.825.815-2.485.568-.707 1.337-1.06 2.307-1.06.95 0 1.67.353 2.158 1.06.39.561.585 1.254.585 2.077z"/>
    </g>
</svg>
