<svg xmlns="http://www.w3.org/2000/svg" width="40" height="40" viewBox="0 0 40 40">
    <defs>
        <linearGradient id="a" x1="76.393%" x2="57.835%" y1="8.772%" y2="67.575%">
            <stop offset="0%" stop-color="#2EA1E8"/>
            <stop offset="100%" stop-color="#00E0C6"/>
        </linearGradient>
    </defs>
    <g fill="none" fill-rule="evenodd">
        <path fill="#FAFAF7" d="M30.469 0C36.25 0 40 3.75 40 9.531V30.47C40 36.25 36.25 40 30.469 40H9.53C3.75 40 0 36.25 0 30.469V9.53C0 3.75 3.75 0 9.531 0H30.47z"/>
        <path fill="url(#a)" d="M28.252 18.402a3.88 3.88 0 0 1-5.58.053c-1.505-1.497-1.62-3.948-.01-5.557 1.536-1.534 3.962-1.57 5.539-.009 1.576 1.562 1.55 3.956.051 5.513m-9.686-9.798c3.801-3.693 9.703-3.721 13.533.077 3.883 3.85 3.812 9.743.123 13.57-2.716 2.818-6.688 3.671-10.17 2.402l-.002.004c-3.421-1.226-4.687.085-7.414 2.811L8.89 33.214a2.013 2.013 0 0 1-2.844 0 2.013 2.013 0 0 1 0-2.845l6.756-6.756 1.066-1.066a1.258 1.258 0 1 0-1.778-1.778l-1.066 1.066.002-.006-2.596 2.596a2.014 2.014 0 0 1-2.846 0 2.002 2.002 0 0 1 .01-2.836l12.873-12.89v-.001h.002l.095-.096.002.002zm-.461 18.951c.647-.647 1.73-.613 2.416.073.688.687.721 1.768.073 2.416l-3.346 3.346c-.647.647-1.73.614-2.416-.072-.688-.688-.722-1.768-.073-2.417l3.346-3.346z"/>
    </g>
</svg>
